{
  "name": "monitor",
  "alias": "monitor.rentable.systems",
  "public": true,
  "type": "npm",
  "env": {
    "NODE_ENV": "production",
    "ENV_SILENT": "true",
    "HOST": "0.0.0.0",
    "PORT": "3000",
    "APP_URL": "https://monitor.rentable.systems",
    "API_URL": "https://monitor.rentable.systems",
    "API_URL_BROWSER": "https://monitor.rentable.systems",
    "CACHE_VIEWS": "true",
    "APP_KEY": "@uptime-app-key",
    "SESSION_DRIVER": "cookie",
    "DB_CONNECTION": "mysql",
    "DB_HOST":"sql134.main-hosting.eu",
    "DB_PORT": "3306",
    "DB_USER":"@uptime-db-user",
    "DB_PASSWORD":"@uptime-db-password",
    "DB_DATABASE":"@uptime-db-name"
  }
}
